…
## Generation of sample tables

Support we have eight strains and want to construct a series of SynComs
with all the possible combinations.

``` r
strains = paste0("S", 1:8)
assign_plate(strains, plate_type = "96")
#> # A tibble: 256 × 2
#>    combination_id combination      
#>    <chr>          <chr>            
#>  1 P1A1           S1/S2/S3/S4/S5/S6
#>  2 P1B1           S1/S2/S3/S4/S5   
#>  3 P1C1           S1/S2/S3/S4/S6   
#>  4 P1D1           S1/S2/S3/S4      
#>  5 P1E1           S1/S2/S3/S5/S6   
#>  6 P1F1           S1/S2/S3/S5      
#>  7 P1G1           S1/S2/S3/S6      
#>  8 P1H1           S1/S2/S3         
#>  9 P1A2           S1/S2/S4/S5/S6   
#> 10 P1B2           S1/S2/S4/S5      
#> # ℹ 246 more rows
```
…
